G04 Layer_Physical_Order=1*
G04 Layer_Color=255*
%FSLAX25Y25*%
%MOIN*%
G70*
G01*
G75*
%ADD10R,0.09842X0.06693*%
%ADD11R,0.06693X0.09842*%
G04:AMPARAMS|DCode=12|XSize=78.74mil|YSize=78.74mil|CornerRadius=19.68mil|HoleSize=0mil|Usage=FLASHONLY|Rotation=0.000|XOffset=0mil|YOffset=0mil|HoleType=Round|Shape=RoundedRectangle|*
%AMROUNDEDRECTD12*
21,1,0.07874,0.03937,0,0,0.0*
21,1,0.03937,0.07874,0,0,0.0*
1,1,0.03937,0.01968,-0.01968*
1,1,0.03937,-0.01968,-0.01968*
1,1,0.03937,-0.01968,0.01968*
1,1,0.03937,0.01968,0.01968*
%
%ADD12ROUNDEDRECTD12*%
G04:AMPARAMS|DCode=13|XSize=43.31mil|YSize=51.18mil|CornerRadius=10.83mil|HoleSize=0mil|Usage=FLASHONLY|Rotation=0.000|XOffset=0mil|YOffset=0mil|HoleType=Round|Shape=RoundedRectangle|*
%AMROUNDEDRECTD13*
21,1,0.04331,0.02953,0,0,0.0*
21,1,0.02165,0.05118,0,0,0.0*
1,1,0.02165,0.01083,-0.01476*
1,1,0.02165,-0.01083,-0.01476*
1,1,0.02165,-0.01083,0.01476*
1,1,0.02165,0.01083,0.01476*
%
%ADD13ROUNDEDRECTD13*%
%ADD14O,0.02362X0.08661*%
G04:AMPARAMS|DCode=15|XSize=25.59mil|YSize=37.4mil|CornerRadius=6.4mil|HoleSize=0mil|Usage=FLASHONLY|Rotation=270.000|XOffset=0mil|YOffset=0mil|HoleType=Round|Shape=RoundedRectangle|*
%AMROUNDEDRECTD15*
21,1,0.02559,0.02461,0,0,270.0*
21,1,0.01279,0.03740,0,0,270.0*
1,1,0.01279,-0.01230,-0.00640*
1,1,0.01279,-0.01230,0.00640*
1,1,0.01279,0.01230,0.00640*
1,1,0.01279,0.01230,-0.00640*
%
%ADD15ROUNDEDRECTD15*%
G04:AMPARAMS|DCode=16|XSize=25.59mil|YSize=37.4mil|CornerRadius=6.4mil|HoleSize=0mil|Usage=FLASHONLY|Rotation=180.000|XOffset=0mil|YOffset=0mil|HoleType=Round|Shape=RoundedRectangle|*
%AMROUNDEDRECTD16*
21,1,0.02559,0.02461,0,0,180.0*
21,1,0.01279,0.03740,0,0,180.0*
1,1,0.01279,-0.00640,0.01230*
1,1,0.01279,0.00640,0.01230*
1,1,0.01279,0.00640,-0.01230*
1,1,0.01279,-0.00640,-0.01230*
%
%ADD16ROUNDEDRECTD16*%
G04:AMPARAMS|DCode=17|XSize=39.37mil|YSize=37.4mil|CornerRadius=9.35mil|HoleSize=0mil|Usage=FLASHONLY|Rotation=180.000|XOffset=0mil|YOffset=0mil|HoleType=Round|Shape=RoundedRectangle|*
%AMROUNDEDRECTD17*
21,1,0.03937,0.01870,0,0,180.0*
21,1,0.02067,0.03740,0,0,180.0*
1,1,0.01870,-0.01034,0.00935*
1,1,0.01870,0.01034,0.00935*
1,1,0.01870,0.01034,-0.00935*
1,1,0.01870,-0.01034,-0.00935*
%
%ADD17ROUNDEDRECTD17*%
G04:AMPARAMS|DCode=18|XSize=70.87mil|YSize=51.18mil|CornerRadius=12.79mil|HoleSize=0mil|Usage=FLASHONLY|Rotation=180.000|XOffset=0mil|YOffset=0mil|HoleType=Round|Shape=RoundedRectangle|*
%AMROUNDEDRECTD18*
21,1,0.07087,0.02559,0,0,180.0*
21,1,0.04528,0.05118,0,0,180.0*
1,1,0.02559,-0.02264,0.01279*
1,1,0.02559,0.02264,0.01279*
1,1,0.02559,0.02264,-0.01279*
1,1,0.02559,-0.02264,-0.01279*
%
%ADD18ROUNDEDRECTD18*%
G04:AMPARAMS|DCode=19|XSize=70.87mil|YSize=51.18mil|CornerRadius=12.79mil|HoleSize=0mil|Usage=FLASHONLY|Rotation=270.000|XOffset=0mil|YOffset=0mil|HoleType=Round|Shape=RoundedRectangle|*
%AMROUNDEDRECTD19*
21,1,0.07087,0.02559,0,0,270.0*
21,1,0.04528,0.05118,0,0,270.0*
1,1,0.02559,-0.01279,-0.02264*
1,1,0.02559,-0.01279,0.02264*
1,1,0.02559,0.01279,0.02264*
1,1,0.02559,0.01279,-0.02264*
%
%ADD19ROUNDEDRECTD19*%
G04:AMPARAMS|DCode=20|XSize=37.4mil|YSize=33.47mil|CornerRadius=8.37mil|HoleSize=0mil|Usage=FLASHONLY|Rotation=0.000|XOffset=0mil|YOffset=0mil|HoleType=Round|Shape=RoundedRectangle|*
%AMROUNDEDRECTD20*
21,1,0.03740,0.01673,0,0,0.0*
21,1,0.02067,0.03347,0,0,0.0*
1,1,0.01673,0.01034,-0.00837*
1,1,0.01673,-0.01034,-0.00837*
1,1,0.01673,-0.01034,0.00837*
1,1,0.01673,0.01034,0.00837*
%
%ADD20ROUNDEDRECTD20*%
G04:AMPARAMS|DCode=21|XSize=37.4mil|YSize=33.47mil|CornerRadius=8.37mil|HoleSize=0mil|Usage=FLASHONLY|Rotation=90.000|XOffset=0mil|YOffset=0mil|HoleType=Round|Shape=RoundedRectangle|*
%AMROUNDEDRECTD21*
21,1,0.03740,0.01673,0,0,90.0*
21,1,0.02067,0.03347,0,0,90.0*
1,1,0.01673,0.00837,0.01034*
1,1,0.01673,0.00837,-0.01034*
1,1,0.01673,-0.00837,-0.01034*
1,1,0.01673,-0.00837,0.01034*
%
%ADD21ROUNDEDRECTD21*%
G04:AMPARAMS|DCode=22|XSize=78.74mil|YSize=47.24mil|CornerRadius=11.81mil|HoleSize=0mil|Usage=FLASHONLY|Rotation=0.000|XOffset=0mil|YOffset=0mil|HoleType=Round|Shape=RoundedRectangle|*
%AMROUNDEDRECTD22*
21,1,0.07874,0.02362,0,0,0.0*
21,1,0.05512,0.04724,0,0,0.0*
1,1,0.02362,0.02756,-0.01181*
1,1,0.02362,-0.02756,-0.01181*
1,1,0.02362,-0.02756,0.01181*
1,1,0.02362,0.02756,0.01181*
%
%ADD22ROUNDEDRECTD22*%
G04:AMPARAMS|DCode=23|XSize=27.56mil|YSize=62.99mil|CornerRadius=6.89mil|HoleSize=0mil|Usage=FLASHONLY|Rotation=0.000|XOffset=0mil|YOffset=0mil|HoleType=Round|Shape=RoundedRectangle|*
%AMROUNDEDRECTD23*
21,1,0.02756,0.04921,0,0,0.0*
21,1,0.01378,0.06299,0,0,0.0*
1,1,0.01378,0.00689,-0.02461*
1,1,0.01378,-0.00689,-0.02461*
1,1,0.01378,-0.00689,0.02461*
1,1,0.01378,0.00689,0.02461*
%
%ADD23ROUNDEDRECTD23*%
G04:AMPARAMS|DCode=24|XSize=31.5mil|YSize=70.87mil|CornerRadius=7.87mil|HoleSize=0mil|Usage=FLASHONLY|Rotation=0.000|XOffset=0mil|YOffset=0mil|HoleType=Round|Shape=RoundedRectangle|*
%AMROUNDEDRECTD24*
21,1,0.03150,0.05512,0,0,0.0*
21,1,0.01575,0.07087,0,0,0.0*
1,1,0.01575,0.00787,-0.02756*
1,1,0.01575,-0.00787,-0.02756*
1,1,0.01575,-0.00787,0.02756*
1,1,0.01575,0.00787,0.02756*
%
%ADD24ROUNDEDRECTD24*%
G04:AMPARAMS|DCode=25|XSize=39.37mil|YSize=37.4mil|CornerRadius=9.35mil|HoleSize=0mil|Usage=FLASHONLY|Rotation=270.000|XOffset=0mil|YOffset=0mil|HoleType=Round|Shape=RoundedRectangle|*
%AMROUNDEDRECTD25*
21,1,0.03937,0.01870,0,0,270.0*
21,1,0.02067,0.03740,0,0,270.0*
1,1,0.01870,-0.00935,-0.01034*
1,1,0.01870,-0.00935,0.01034*
1,1,0.01870,0.00935,0.01034*
1,1,0.01870,0.00935,-0.01034*
%
%ADD25ROUNDEDRECTD25*%
%ADD26O,0.05709X0.02362*%
G04:AMPARAMS|DCode=27|XSize=68.9mil|YSize=49.21mil|CornerRadius=12.3mil|HoleSize=0mil|Usage=FLASHONLY|Rotation=180.000|XOffset=0mil|YOffset=0mil|HoleType=Round|Shape=RoundedRectangle|*
%AMROUNDEDRECTD27*
21,1,0.06890,0.02461,0,0,180.0*
21,1,0.04429,0.04921,0,0,180.0*
1,1,0.02461,-0.02215,0.01230*
1,1,0.02461,0.02215,0.01230*
1,1,0.02461,0.02215,-0.01230*
1,1,0.02461,-0.02215,-0.01230*
%
%ADD27ROUNDEDRECTD27*%
G04:AMPARAMS|DCode=28|XSize=157.48mil|YSize=84.65mil|CornerRadius=21.16mil|HoleSize=0mil|Usage=FLASHONLY|Rotation=270.000|XOffset=0mil|YOffset=0mil|HoleType=Round|Shape=RoundedRectangle|*
%AMROUNDEDRECTD28*
21,1,0.15748,0.04232,0,0,270.0*
21,1,0.11516,0.08465,0,0,270.0*
1,1,0.04232,-0.02116,-0.05758*
1,1,0.04232,-0.02116,0.05758*
1,1,0.04232,0.02116,0.05758*
1,1,0.04232,0.02116,-0.05758*
%
%ADD28ROUNDEDRECTD28*%
G04:AMPARAMS|DCode=29|XSize=55.12mil|YSize=45.28mil|CornerRadius=11.32mil|HoleSize=0mil|Usage=FLASHONLY|Rotation=0.000|XOffset=0mil|YOffset=0mil|HoleType=Round|Shape=RoundedRectangle|*
%AMROUNDEDRECTD29*
21,1,0.05512,0.02264,0,0,0.0*
21,1,0.03248,0.04528,0,0,0.0*
1,1,0.02264,0.01624,-0.01132*
1,1,0.02264,-0.01624,-0.01132*
1,1,0.02264,-0.01624,0.01132*
1,1,0.02264,0.01624,0.01132*
%
%ADD29ROUNDEDRECTD29*%
%ADD30O,0.05905X0.02165*%
%ADD31O,0.02165X0.05905*%
G04:AMPARAMS|DCode=32|XSize=37.4mil|YSize=35.43mil|CornerRadius=8.86mil|HoleSize=0mil|Usage=FLASHONLY|Rotation=0.000|XOffset=0mil|YOffset=0mil|HoleType=Round|Shape=RoundedRectangle|*
%AMROUNDEDRECTD32*
21,1,0.03740,0.01772,0,0,0.0*
21,1,0.01968,0.03543,0,0,0.0*
1,1,0.01772,0.00984,-0.00886*
1,1,0.01772,-0.00984,-0.00886*
1,1,0.01772,-0.00984,0.00886*
1,1,0.01772,0.00984,0.00886*
%
%ADD32ROUNDEDRECTD32*%
%ADD33R,0.11024X0.09449*%
G04:AMPARAMS|DCode=34|XSize=53.15mil|YSize=39.37mil|CornerRadius=9.84mil|HoleSize=0mil|Usage=FLASHONLY|Rotation=180.000|XOffset=0mil|YOffset=0mil|HoleType=Round|Shape=RoundedRectangle|*
%AMROUNDEDRECTD34*
21,1,0.05315,0.01968,0,0,180.0*
21,1,0.03347,0.03937,0,0,180.0*
1,1,0.01968,-0.01673,0.00984*
1,1,0.01968,0.01673,0.00984*
1,1,0.01968,0.01673,-0.00984*
1,1,0.01968,-0.01673,-0.00984*
%
%ADD34ROUNDEDRECTD34*%
G04:AMPARAMS|DCode=35|XSize=55.12mil|YSize=13.78mil|CornerRadius=3.44mil|HoleSize=0mil|Usage=FLASHONLY|Rotation=270.000|XOffset=0mil|YOffset=0mil|HoleType=Round|Shape=RoundedRectangle|*
%AMROUNDEDRECTD35*
21,1,0.05512,0.00689,0,0,270.0*
21,1,0.04823,0.01378,0,0,270.0*
1,1,0.00689,-0.00344,-0.02411*
1,1,0.00689,-0.00344,0.02411*
1,1,0.00689,0.00344,0.02411*
1,1,0.00689,0.00344,-0.02411*
%
%ADD35ROUNDEDRECTD35*%
G04:AMPARAMS|DCode=36|XSize=62.99mil|YSize=74.8mil|CornerRadius=15.75mil|HoleSize=0mil|Usage=FLASHONLY|Rotation=180.000|XOffset=0mil|YOffset=0mil|HoleType=Round|Shape=RoundedRectangle|*
%AMROUNDEDRECTD36*
21,1,0.06299,0.04330,0,0,180.0*
21,1,0.03150,0.07480,0,0,180.0*
1,1,0.03150,-0.01575,0.02165*
1,1,0.03150,0.01575,0.02165*
1,1,0.03150,0.01575,-0.02165*
1,1,0.03150,-0.01575,-0.02165*
%
%ADD36ROUNDEDRECTD36*%
%ADD37C,0.01968*%
%ADD38C,0.02756*%
%ADD39C,0.07874*%
%ADD40C,0.05905*%
%ADD41C,0.01575*%
%ADD42C,0.00984*%
%ADD43C,0.03150*%
%ADD44C,0.04724*%
%ADD45C,0.03937*%
%ADD46C,0.02362*%
%ADD47C,0.01181*%
%ADD48C,0.00787*%
%ADD49R,0.02953X0.01870*%
%ADD50C,0.06000*%
%ADD51C,0.05905*%
%ADD52R,0.05905X0.05905*%
%ADD53C,0.03937*%
%ADD54O,0.15748X0.07874*%
%ADD55C,0.07087*%
%ADD56R,0.09449X0.12598*%
%ADD57O,0.04134X0.08465*%
%ADD58C,0.02756*%
%ADD59C,0.03000*%
%ADD60C,0.06299*%
%ADD61C,0.02362*%
G36*
X354331Y61024D02*
X385827D01*
X387795Y59055D01*
Y47244D01*
X386811Y46260D01*
X373031D01*
X370079Y43307D01*
X370079Y32210D01*
X369956Y32181D01*
X368051Y31392D01*
X366293Y30315D01*
X364725Y28976D01*
X363515Y27559D01*
X316929D01*
X314961Y29528D01*
Y43307D01*
X338583Y61024D01*
X340551Y62992D01*
X352362D01*
X354331Y61024D01*
D02*
G37*
G36*
X389764Y42323D02*
Y30512D01*
X387795Y28543D01*
X383676D01*
X383306Y28976D01*
X381739Y30315D01*
X379981Y31392D01*
X378076Y32181D01*
X376071Y32662D01*
X374016Y32824D01*
X372414Y32698D01*
X372047Y33037D01*
Y42323D01*
X374016Y44291D01*
X387795D01*
X389764Y42323D01*
D02*
G37*
G36*
X25492Y76673D02*
X26575Y75590D01*
Y50197D01*
X25591Y49213D01*
X14764D01*
X13780Y50197D01*
Y75787D01*
X14764Y76772D01*
X25492Y76673D01*
D02*
G37*
G36*
X112992Y41339D02*
Y29528D01*
X110630Y27559D01*
X98425D01*
X96457Y29528D01*
Y41339D01*
X98425Y43307D01*
X111417D01*
X112992Y41339D01*
D02*
G37*
G36*
X84646Y11811D02*
Y3937D01*
X82677Y1969D01*
X35433D01*
X33465Y3937D01*
Y11811D01*
X35433Y13780D01*
X58619D01*
X58651Y13280D01*
X58257Y13228D01*
X58157Y13194D01*
X58054Y13173D01*
X57408Y12905D01*
X57320Y12847D01*
X57226Y12801D01*
X56671Y12375D01*
X56602Y12296D01*
X56523Y12227D01*
X56097Y11671D01*
X56050Y11577D01*
X55992Y11490D01*
X55724Y10843D01*
X55704Y10740D01*
X55670Y10641D01*
X55579Y9947D01*
X55586Y9843D01*
X55579Y9738D01*
X55670Y9044D01*
X55704Y8945D01*
X55724Y8841D01*
X55992Y8195D01*
X56050Y8108D01*
X56097Y8014D01*
X56523Y7458D01*
X56602Y7389D01*
X56671Y7310D01*
X57226Y6884D01*
X57320Y6838D01*
X57408Y6780D01*
X58054Y6512D01*
X58157Y6491D01*
X58257Y6458D01*
X58950Y6366D01*
X59003Y6370D01*
X59055Y6359D01*
X59107Y6370D01*
X59160Y6366D01*
X59854Y6458D01*
X59953Y6491D01*
X60056Y6512D01*
X60703Y6780D01*
X60790Y6838D01*
X60884Y6884D01*
X61439Y7310D01*
X61508Y7389D01*
X61587Y7458D01*
X62013Y8014D01*
X62060Y8108D01*
X62118Y8195D01*
X62386Y8841D01*
X62406Y8945D01*
X62440Y9044D01*
X62532Y9738D01*
X62525Y9843D01*
X62532Y9947D01*
X62440Y10641D01*
X62406Y10740D01*
X62386Y10843D01*
X62118Y11490D01*
X62060Y11577D01*
X62013Y11671D01*
X61587Y12227D01*
X61508Y12296D01*
X61439Y12375D01*
X60884Y12801D01*
X60790Y12847D01*
X60703Y12905D01*
X60056Y13173D01*
X59953Y13194D01*
X59854Y13228D01*
X59459Y13280D01*
X59492Y13780D01*
X82677D01*
X84646Y11811D01*
D02*
G37*
G36*
X360236D02*
Y3937D01*
X358268Y1969D01*
X311024D01*
X309055Y3937D01*
Y11811D01*
X311024Y13780D01*
X334209D01*
X334242Y13280D01*
X333847Y13228D01*
X333748Y13194D01*
X333645Y13173D01*
X332998Y12905D01*
X332911Y12847D01*
X332817Y12801D01*
X332262Y12375D01*
X332192Y12296D01*
X332113Y12227D01*
X331687Y11671D01*
X331641Y11577D01*
X331583Y11490D01*
X331315Y10843D01*
X331294Y10740D01*
X331261Y10641D01*
X331169Y9947D01*
X331176Y9843D01*
X331169Y9738D01*
X331261Y9044D01*
X331294Y8945D01*
X331315Y8841D01*
X331583Y8195D01*
X331641Y8108D01*
X331687Y8014D01*
X332113Y7458D01*
X332192Y7389D01*
X332262Y7310D01*
X332817Y6884D01*
X332911Y6838D01*
X332998Y6780D01*
X333645Y6512D01*
X333748Y6491D01*
X333847Y6458D01*
X334541Y6366D01*
X334594Y6370D01*
X334646Y6359D01*
X334698Y6370D01*
X334751Y6366D01*
X335444Y6458D01*
X335544Y6491D01*
X335647Y6512D01*
X336293Y6780D01*
X336380Y6838D01*
X336475Y6884D01*
X337030Y7310D01*
X337099Y7389D01*
X337178Y7458D01*
X337604Y8014D01*
X337650Y8108D01*
X337709Y8195D01*
X337977Y8841D01*
X337997Y8945D01*
X338031Y9044D01*
X338122Y9738D01*
X338115Y9843D01*
X338122Y9947D01*
X338031Y10641D01*
X337997Y10740D01*
X337977Y10843D01*
X337709Y11490D01*
X337650Y11577D01*
X337604Y11671D01*
X337178Y12227D01*
X337099Y12296D01*
X337030Y12375D01*
X336475Y12801D01*
X336380Y12847D01*
X336293Y12905D01*
X335647Y13173D01*
X335544Y13194D01*
X335444Y13228D01*
X335049Y13280D01*
X335082Y13780D01*
X358268D01*
X360236Y11811D01*
D02*
G37*
G36*
X112205Y57087D02*
Y47244D01*
X110236Y45276D01*
X96457D01*
X94488Y43307D01*
Y29528D01*
X92520Y27559D01*
X41339D01*
Y31496D01*
Y41339D01*
X57087Y49213D01*
X75984D01*
X85827Y59055D01*
X110236D01*
X112205Y57087D01*
D02*
G37*
G36*
X76772Y59055D02*
Y53150D01*
X74803Y51181D01*
X62992D01*
X61024Y53150D01*
Y59055D01*
X62992Y61024D01*
X74803D01*
X76772Y59055D01*
D02*
G37*
G36*
X92520Y192913D02*
Y146063D01*
X88583Y140551D01*
X76772Y124016D01*
Y100394D01*
X73819Y97441D01*
X50197D01*
X47244Y100394D01*
Y124016D01*
X61811Y140551D01*
X66929Y149606D01*
Y169008D01*
X66966Y169291D01*
X66929Y169575D01*
Y192913D01*
X68898Y194882D01*
X90551D01*
X92520Y192913D01*
D02*
G37*
G36*
X161417Y102264D02*
X162303Y101378D01*
X169291D01*
X170276Y100394D01*
Y84646D01*
X169291Y83661D01*
X150591D01*
X149606Y84646D01*
Y100394D01*
X150591Y101378D01*
X157382D01*
X158268Y102264D01*
X159843Y103839D01*
X161417Y102264D01*
D02*
G37*
G36*
X49213Y192913D02*
Y137795D01*
X40354Y128937D01*
X11811D01*
X10827Y129921D01*
Y144685D01*
X11811Y145669D01*
X28543D01*
X33465Y150591D01*
Y192913D01*
X35433Y194882D01*
X47244D01*
X49213Y192913D01*
D02*
G37*
G36*
X98032Y116240D02*
Y104429D01*
X93012Y98917D01*
X86319D01*
X81299Y104429D01*
Y116240D01*
X82284Y117224D01*
X97047D01*
X98032Y116240D01*
D02*
G37*
G36*
X391732Y95472D02*
Y67913D01*
X390748Y66929D01*
X385827D01*
X384842Y67913D01*
Y78740D01*
X382874Y80709D01*
X381890Y81693D01*
Y95472D01*
X382874Y96457D01*
X390748D01*
X391732Y95472D01*
D02*
G37*
G36*
X378937Y85630D02*
X378937Y79724D01*
X382874Y75787D01*
X382874Y63976D01*
X381890Y62992D01*
X370079D01*
X369094Y63976D01*
Y77756D01*
X368110Y78740D01*
X364173D01*
X363189Y77756D01*
Y73819D01*
X362205Y72835D01*
X355315D01*
X354331Y71850D01*
Y70866D01*
X353346Y69882D01*
X331693D01*
X330709Y70866D01*
Y85630D01*
X331693Y86614D01*
X377953D01*
X378937Y85630D01*
D02*
G37*
G36*
X38386Y118110D02*
Y101378D01*
X47244Y92520D01*
X102362D01*
X103347Y91535D01*
X105315Y89567D01*
Y79724D01*
X108268Y76772D01*
Y66929D01*
X107283Y65945D01*
X94488D01*
X93504Y66929D01*
Y76772D01*
X92520Y77756D01*
X88583D01*
X87598Y76772D01*
Y74803D01*
X85630Y72835D01*
X78740D01*
Y67716D01*
X77559Y66535D01*
X66929D01*
X65748Y67716D01*
Y72835D01*
X36417D01*
X31496Y77756D01*
X23622Y85630D01*
X15748D01*
X14764Y86614D01*
Y119095D01*
X15748Y120079D01*
X36417D01*
X38386Y118110D01*
D02*
G37*
%LPC*%
G36*
X334646Y36948D02*
X334594Y36937D01*
X334541Y36941D01*
X333847Y36850D01*
X333748Y36816D01*
X333645Y36795D01*
X332998Y36528D01*
X332911Y36469D01*
X332817Y36423D01*
X332262Y35997D01*
X332192Y35918D01*
X332113Y35849D01*
X331687Y35293D01*
X331641Y35199D01*
X331583Y35112D01*
X331315Y34466D01*
X331294Y34363D01*
X331261Y34263D01*
X331169Y33569D01*
X331176Y33465D01*
X331169Y33360D01*
X331261Y32666D01*
X331294Y32567D01*
X331315Y32464D01*
X331583Y31817D01*
X331641Y31730D01*
X331687Y31636D01*
X332113Y31080D01*
X332192Y31011D01*
X332262Y30932D01*
X332817Y30506D01*
X332911Y30460D01*
X332998Y30402D01*
X333645Y30134D01*
X333748Y30113D01*
X333847Y30079D01*
X334541Y29988D01*
X334594Y29992D01*
X334646Y29981D01*
X334698Y29992D01*
X334751Y29988D01*
X335444Y30079D01*
X335544Y30113D01*
X335647Y30134D01*
X336293Y30402D01*
X336380Y30460D01*
X336475Y30506D01*
X337030Y30932D01*
X337099Y31011D01*
X337178Y31080D01*
X337604Y31636D01*
X337650Y31730D01*
X337709Y31817D01*
X337977Y32464D01*
X337997Y32567D01*
X338031Y32666D01*
X338122Y33360D01*
X338115Y33465D01*
X338122Y33569D01*
X338031Y34263D01*
X337997Y34363D01*
X337977Y34466D01*
X337709Y35112D01*
X337650Y35199D01*
X337604Y35293D01*
X337178Y35849D01*
X337099Y35918D01*
X337030Y35997D01*
X336475Y36423D01*
X336380Y36469D01*
X336293Y36528D01*
X335647Y36795D01*
X335544Y36816D01*
X335444Y36850D01*
X334751Y36941D01*
X334698Y36937D01*
X334646Y36948D01*
D02*
G37*
G36*
X59055D02*
X59003Y36937D01*
X58950Y36941D01*
X58257Y36850D01*
X58157Y36816D01*
X58054Y36795D01*
X57408Y36528D01*
X57320Y36469D01*
X57226Y36423D01*
X56671Y35997D01*
X56602Y35918D01*
X56523Y35849D01*
X56097Y35293D01*
X56050Y35199D01*
X55992Y35112D01*
X55724Y34466D01*
X55704Y34363D01*
X55670Y34263D01*
X55579Y33569D01*
X55586Y33465D01*
X55579Y33360D01*
X55670Y32666D01*
X55704Y32567D01*
X55724Y32464D01*
X55992Y31817D01*
X56050Y31730D01*
X56097Y31636D01*
X56523Y31080D01*
X56602Y31011D01*
X56671Y30932D01*
X57226Y30506D01*
X57320Y30460D01*
X57408Y30402D01*
X58054Y30134D01*
X58157Y30113D01*
X58257Y30079D01*
X58950Y29988D01*
X59003Y29992D01*
X59055Y29981D01*
X59107Y29992D01*
X59160Y29988D01*
X59854Y30079D01*
X59953Y30113D01*
X60056Y30134D01*
X60703Y30402D01*
X60790Y30460D01*
X60884Y30506D01*
X61439Y30932D01*
X61508Y31011D01*
X61587Y31080D01*
X62013Y31636D01*
X62060Y31730D01*
X62118Y31817D01*
X62386Y32464D01*
X62406Y32567D01*
X62440Y32666D01*
X62532Y33360D01*
X62525Y33465D01*
X62532Y33569D01*
X62440Y34263D01*
X62406Y34363D01*
X62386Y34466D01*
X62118Y35112D01*
X62060Y35199D01*
X62013Y35293D01*
X61587Y35849D01*
X61508Y35918D01*
X61439Y35997D01*
X60884Y36423D01*
X60790Y36469D01*
X60703Y36528D01*
X60056Y36795D01*
X59953Y36816D01*
X59854Y36850D01*
X59160Y36941D01*
X59107Y36937D01*
X59055Y36948D01*
D02*
G37*
%LPD*%
D10*
X365158Y39862D02*
D03*
X381157D02*
D03*
X87402Y35433D02*
D03*
X103402D02*
D03*
D11*
X89665Y87894D02*
D03*
Y103894D02*
D03*
D12*
X152559Y177165D02*
D03*
X178150Y189961D02*
D03*
Y177165D02*
D03*
Y164370D02*
D03*
X152559D02*
D03*
Y189961D02*
D03*
X347441Y19685D02*
D03*
X321850Y6890D02*
D03*
Y19685D02*
D03*
Y32480D02*
D03*
X347441D02*
D03*
Y6890D02*
D03*
X71850Y19685D02*
D03*
X46260Y6890D02*
D03*
Y19685D02*
D03*
Y32480D02*
D03*
X71850D02*
D03*
Y6890D02*
D03*
D13*
X192913Y135433D02*
D03*
X200787D02*
D03*
Y144882D02*
D03*
X192913D02*
D03*
D14*
X105925Y72441D02*
D03*
X100925D02*
D03*
X95925D02*
D03*
X90925D02*
D03*
X105925Y53543D02*
D03*
X100925D02*
D03*
X95925D02*
D03*
X90925D02*
D03*
X366516D02*
D03*
X371516D02*
D03*
X376516D02*
D03*
X381516D02*
D03*
X366516Y72441D02*
D03*
X371516D02*
D03*
X376516D02*
D03*
X381516D02*
D03*
D15*
X143996Y60925D02*
D03*
Y68405D02*
D03*
X134744Y64665D02*
D03*
D16*
X296654Y45768D02*
D03*
X300394Y36516D02*
D03*
X292913D02*
D03*
D17*
X173228Y25197D02*
D03*
Y18898D02*
D03*
X300886Y97736D02*
D03*
Y91437D02*
D03*
X224410Y22835D02*
D03*
Y16535D02*
D03*
X287894Y97244D02*
D03*
Y90945D02*
D03*
X173622Y100295D02*
D03*
Y106595D02*
D03*
X146063D02*
D03*
Y100295D02*
D03*
X217224Y144587D02*
D03*
Y138287D02*
D03*
X242126Y161221D02*
D03*
Y167520D02*
D03*
X290256Y120079D02*
D03*
Y126378D02*
D03*
X287008Y168307D02*
D03*
Y162008D02*
D03*
X199803Y71949D02*
D03*
Y78248D02*
D03*
X223425Y71949D02*
D03*
Y78248D02*
D03*
X210630Y96260D02*
D03*
Y102559D02*
D03*
X192520Y95571D02*
D03*
Y101870D02*
D03*
X204528Y112205D02*
D03*
Y118504D02*
D03*
X192717Y112106D02*
D03*
Y118405D02*
D03*
X283957Y126378D02*
D03*
Y120079D02*
D03*
X248031Y167520D02*
D03*
Y161221D02*
D03*
D18*
X72441Y57972D02*
D03*
Y68996D02*
D03*
D19*
X386417Y82677D02*
D03*
X375394D02*
D03*
D20*
X82677Y74902D02*
D03*
Y68799D02*
D03*
X179134Y36909D02*
D03*
Y30807D02*
D03*
X127559Y61614D02*
D03*
Y67716D02*
D03*
X173228Y30807D02*
D03*
Y36909D02*
D03*
X294980Y97638D02*
D03*
Y91535D02*
D03*
X158071Y61614D02*
D03*
Y67716D02*
D03*
X179134Y25098D02*
D03*
Y18996D02*
D03*
X151181Y61614D02*
D03*
Y67716D02*
D03*
X358268Y74902D02*
D03*
Y68799D02*
D03*
X218504Y34547D02*
D03*
Y28445D02*
D03*
X224410Y28445D02*
D03*
Y34547D02*
D03*
X281988Y97146D02*
D03*
Y91043D02*
D03*
X218504Y22736D02*
D03*
Y16634D02*
D03*
X267717Y161319D02*
D03*
Y167421D02*
D03*
X193898Y78150D02*
D03*
Y72047D02*
D03*
X281102Y162106D02*
D03*
Y168209D02*
D03*
X198622Y118307D02*
D03*
Y112205D02*
D03*
X210433Y118405D02*
D03*
Y112303D02*
D03*
X297638Y143012D02*
D03*
Y149114D02*
D03*
X329134Y168405D02*
D03*
Y162303D02*
D03*
X303543Y142421D02*
D03*
Y136319D02*
D03*
X297638Y133760D02*
D03*
Y127657D02*
D03*
X303543Y119587D02*
D03*
Y113484D02*
D03*
X217520Y78150D02*
D03*
Y72047D02*
D03*
X204724Y96358D02*
D03*
Y102461D02*
D03*
X198425Y101772D02*
D03*
Y95669D02*
D03*
X297638Y106791D02*
D03*
Y112894D02*
D03*
X167323Y36909D02*
D03*
Y30807D02*
D03*
X296654Y179724D02*
D03*
Y185827D02*
D03*
X387008Y109350D02*
D03*
Y103248D02*
D03*
X335433Y162303D02*
D03*
Y168405D02*
D03*
X230315Y34547D02*
D03*
Y28445D02*
D03*
X261811Y167421D02*
D03*
Y161319D02*
D03*
X205709Y72047D02*
D03*
Y78150D02*
D03*
X186614Y112303D02*
D03*
Y118405D02*
D03*
X207087Y137106D02*
D03*
Y143209D02*
D03*
X254921Y167421D02*
D03*
Y161319D02*
D03*
D21*
X293602Y52953D02*
D03*
X299705D02*
D03*
X293602Y21457D02*
D03*
X299705D02*
D03*
X293602Y29331D02*
D03*
X299705D02*
D03*
D22*
X270079Y34843D02*
D03*
X241732Y20276D02*
D03*
Y34843D02*
D03*
X270079Y20276D02*
D03*
X151969Y34843D02*
D03*
X123622Y20276D02*
D03*
Y34843D02*
D03*
X151969Y20276D02*
D03*
D23*
X165748Y106201D02*
D03*
X153937D02*
D03*
D24*
X159843Y105807D02*
D03*
D25*
X281299Y147638D02*
D03*
X287598D02*
D03*
X273819Y95472D02*
D03*
X267520D02*
D03*
X232480D02*
D03*
X226181D02*
D03*
X201969Y41339D02*
D03*
X195669D02*
D03*
X193701Y128740D02*
D03*
X200000D02*
D03*
Y151575D02*
D03*
X193701D02*
D03*
X281299Y141732D02*
D03*
X287598D02*
D03*
D26*
X188091Y33091D02*
D03*
Y28091D02*
D03*
Y23090D02*
D03*
Y18090D02*
D03*
X209547Y33091D02*
D03*
Y28091D02*
D03*
Y23090D02*
D03*
Y18090D02*
D03*
D27*
X124409Y172244D02*
D03*
Y161221D02*
D03*
D28*
X19685Y137598D02*
D03*
Y112008D02*
D03*
Y68307D02*
D03*
Y93898D02*
D03*
D29*
X300000Y156890D02*
D03*
Y163583D02*
D03*
D30*
X272638Y142717D02*
D03*
Y139567D02*
D03*
Y136417D02*
D03*
Y133268D02*
D03*
Y130118D02*
D03*
Y126969D02*
D03*
Y123819D02*
D03*
Y120669D02*
D03*
Y117520D02*
D03*
Y114370D02*
D03*
Y111221D02*
D03*
X227362D02*
D03*
Y114370D02*
D03*
Y117520D02*
D03*
Y120669D02*
D03*
Y123819D02*
D03*
Y126969D02*
D03*
Y130118D02*
D03*
Y133268D02*
D03*
Y136417D02*
D03*
Y139567D02*
D03*
Y142717D02*
D03*
D31*
X265748Y104331D02*
D03*
X262598D02*
D03*
X259449D02*
D03*
X256299D02*
D03*
X253150D02*
D03*
X250000D02*
D03*
X246850D02*
D03*
X243701D02*
D03*
X240551D02*
D03*
X237402D02*
D03*
X234252D02*
D03*
Y149606D02*
D03*
X237402D02*
D03*
X240551D02*
D03*
X243701D02*
D03*
X246850D02*
D03*
X250000D02*
D03*
X253150D02*
D03*
X256299D02*
D03*
X259449D02*
D03*
X262598D02*
D03*
X265748D02*
D03*
D32*
X211614Y71752D02*
D03*
Y78445D02*
D03*
D33*
X40945Y162992D02*
D03*
X84252D02*
D03*
X40945Y187008D02*
D03*
X84252D02*
D03*
D34*
X238287Y182480D02*
D03*
X263484D02*
D03*
D35*
X248327Y180709D02*
D03*
X250886D02*
D03*
X253445D02*
D03*
X245768D02*
D03*
X256004D02*
D03*
D36*
X254823Y191142D02*
D03*
X246949D02*
D03*
D37*
X311713Y156890D02*
X312106Y157283D01*
X278937Y139567D02*
X281201Y141831D01*
X265846Y104331D02*
Y104528D01*
Y97146D02*
Y104331D01*
X226279Y95472D02*
Y98721D01*
X223425Y69095D02*
X224016Y68504D01*
X300984Y29331D02*
Y30118D01*
X261417Y20276D02*
X270079D01*
X248819D02*
X261417D01*
X241929D02*
X248819D01*
X241339Y20866D02*
X241929Y20276D01*
X193307Y135827D02*
X197244Y139764D01*
X192913Y128740D02*
X193701Y127953D01*
X146063Y100197D02*
X155512D01*
X145965D02*
X146063D01*
X151772Y20276D02*
X151969Y20079D01*
X131496Y20276D02*
X144488D01*
X151772D01*
X123622D02*
X131496D01*
X303150Y142717D02*
X306535D01*
X281201Y168996D02*
X281693Y168504D01*
X277559Y168405D02*
X281398D01*
X273917Y95177D02*
X274213Y95472D01*
X258858Y79035D02*
X263779Y83957D01*
X229035Y91732D02*
X232776Y95472D01*
X217913Y182382D02*
X222835D01*
X201969Y40945D02*
X202362Y41339D01*
X186516Y85039D02*
Y89272D01*
X167421Y37205D02*
Y41043D01*
X301279Y146653D02*
X312992D01*
X300984Y30118D02*
X303150Y27953D01*
X299705Y29331D02*
X300984D01*
X293012Y112894D02*
X297638D01*
X288779Y104528D02*
Y113476D01*
X291740Y116437D01*
X173228Y36614D02*
X173228D01*
X167323Y30709D02*
X173228Y36614D01*
X304331Y14961D02*
X309055Y19685D01*
X292913Y36614D02*
X293602Y35925D01*
X143996Y60827D02*
X144783Y61614D01*
X78937Y63779D02*
X81693Y61024D01*
X57874Y63779D02*
X78937D01*
X38583Y44488D02*
X57874Y63779D01*
X116142Y28346D02*
Y58071D01*
X113189Y61024D02*
X116142Y58071D01*
X81693Y61024D02*
X113189D01*
X286516Y75197D02*
X295177D01*
X240354Y149606D02*
X240476Y149728D01*
X124016Y35433D02*
X124409Y35039D01*
X321161Y157283D02*
Y180217D01*
X296654Y176181D02*
X300098Y172736D01*
X296654Y176181D02*
Y179724D01*
X296161Y180413D02*
X296654Y179921D01*
X281004Y180413D02*
X296161D01*
X358268Y68504D02*
X362205D01*
X293602Y53347D02*
X297539Y57284D01*
X297638D01*
X297835Y57480D01*
X302264D01*
X304823Y54921D02*
X319094D01*
X302264Y57480D02*
X304823Y54921D01*
X356004Y66240D02*
X358268Y68504D01*
X330512Y66339D02*
X355906D01*
X319094Y54921D02*
X330512Y66339D01*
X293602Y52953D02*
Y53347D01*
X295177Y75197D02*
X299803Y79823D01*
X314961D01*
X322047Y86909D01*
X197244Y139764D02*
X200787Y143307D01*
X196850Y139764D02*
X196850Y139764D01*
X197244D01*
X200000Y145669D02*
X200394Y145276D01*
X200000Y145669D02*
Y151575D01*
X192913Y128740D02*
Y135433D01*
X200787Y143307D02*
Y144882D01*
X217224Y136122D02*
Y138287D01*
X181201Y151772D02*
X189075Y159646D01*
X181201Y121161D02*
Y151772D01*
X181102Y121063D02*
X181201Y121161D01*
X144488Y67716D02*
X151181D01*
X127362D02*
X127559D01*
X131693D01*
X299705Y17028D02*
Y21457D01*
X144783Y61614D02*
X151181D01*
X158071D01*
X261417Y20276D02*
Y20472D01*
X248819Y20276D02*
Y20472D01*
X124409Y35039D02*
X151575D01*
X150591Y36024D02*
X151575Y35039D01*
X150591Y36024D02*
Y43504D01*
X144488Y20079D02*
Y20276D01*
X131496Y20079D02*
Y20276D01*
X300394Y169390D02*
Y172441D01*
Y163779D02*
Y169390D01*
X300689Y169685D01*
X281004Y180413D02*
X281201Y168996D01*
X217913Y182382D02*
Y187303D01*
X215158Y190059D02*
X217913Y187303D01*
X197933Y190059D02*
X215158D01*
X270472Y161319D02*
X277559Y168405D01*
X267717Y161319D02*
X270472D01*
X296260Y138484D02*
X301378D01*
X303543Y136319D01*
X240476Y149728D02*
Y155413D01*
X270965Y150984D02*
X276279Y156299D01*
X290453D01*
X297638Y149114D01*
X300000Y156890D02*
X311713D01*
X312008Y106791D02*
X312106Y106693D01*
X297638Y106791D02*
X312008D01*
X309744Y119587D02*
X312500Y116831D01*
X303543Y119587D02*
X309744D01*
X297638Y143012D02*
X301279Y146653D01*
X306535Y142717D02*
X312500Y136752D01*
X164075Y100295D02*
X173524D01*
X159744Y95965D02*
X164075Y100295D01*
X146063Y100197D02*
Y100295D01*
Y95079D02*
Y100197D01*
X173228Y106201D02*
X173327Y106299D01*
X165748Y106201D02*
X173228D01*
X173622Y94095D02*
X173622Y94095D01*
Y100295D01*
X145965Y94980D02*
X146063Y95079D01*
X287008Y168307D02*
Y173130D01*
X232776Y95472D02*
X232874Y95571D01*
X186516Y89272D02*
X188976Y86811D01*
X196161D01*
X198425Y89075D01*
Y95669D01*
X287598Y152165D02*
X287697Y152264D01*
X287598Y147638D02*
Y152165D01*
X281693Y141732D02*
X287106Y147146D01*
X281299Y141732D02*
X281693D01*
X229626Y102067D02*
X231890Y104331D01*
X234252D01*
X265846D02*
X267421D01*
X265748D02*
X265846D01*
X267421D02*
X269980Y101772D01*
X266929Y114370D02*
X272638D01*
X241831Y167224D02*
X242126Y167520D01*
X217224Y136122D02*
X220079Y133268D01*
X220669Y133366D02*
X220768Y133268D01*
X227362D01*
X192717Y111614D02*
X195669Y108661D01*
X192520Y111811D02*
X192717Y111614D01*
Y112106D01*
Y107185D02*
Y111614D01*
X192618Y107087D02*
X192717Y107185D01*
X192421Y90650D02*
X192520Y90748D01*
Y95571D01*
X300886Y86614D02*
X301083Y86417D01*
X300886Y86614D02*
Y91437D01*
X287894Y86221D02*
X287894Y86221D01*
X287894Y86221D02*
Y90945D01*
X289665Y120079D02*
X289862Y119882D01*
X253150Y155901D02*
X253162Y155913D01*
X253150Y149606D02*
Y155901D01*
X245768Y174213D02*
X248031Y171949D01*
Y167520D02*
Y171949D01*
X272638Y139567D02*
X278937D01*
X195669Y108661D02*
X200984D01*
X204528Y112205D01*
X202362Y41339D02*
X207480D01*
X201969Y40945D02*
X201969Y40945D01*
X303150Y25984D02*
Y27953D01*
X282283Y21260D02*
X288189Y15354D01*
X298031D02*
X299705Y17028D01*
X293602Y29331D02*
Y35925D01*
Y21457D02*
Y29331D01*
X299606Y29528D02*
X300394Y30315D01*
Y36516D01*
X300000Y49114D02*
Y52756D01*
X296654Y45768D02*
X300000Y49114D01*
X362205Y68504D02*
X366142Y72441D01*
X143996Y68209D02*
X144488Y67716D01*
X131693D02*
X134744Y64665D01*
X288189Y15354D02*
X297638D01*
X201969Y41339D02*
X202362D01*
X218504Y34547D02*
Y41732D01*
X387008Y109350D02*
Y136614D01*
X379528Y144095D02*
X387008Y136614D01*
X321161Y180217D02*
X327165Y186221D01*
X344488D01*
X379528Y151181D01*
Y144095D02*
Y151181D01*
X158071Y67716D02*
X161614Y71260D01*
X163779D01*
X139764Y54331D02*
X150591Y43504D01*
X179134Y37402D02*
X189370Y47638D01*
X219685D01*
X167323Y28346D02*
Y30709D01*
X185925Y106595D02*
X186417Y106102D01*
X186516Y89272D02*
Y112205D01*
X273917Y90748D02*
Y95177D01*
X265453Y138386D02*
X266634Y139567D01*
X249410Y79035D02*
X258858D01*
X266535Y114764D02*
X266929Y114370D01*
X266535Y114764D02*
Y119291D01*
X259449Y99311D02*
Y104331D01*
X297638Y133760D02*
X299705Y131693D01*
X305807D01*
X310236Y127264D01*
X312402D01*
X312106Y127657D02*
X312598Y127165D01*
X297638Y127657D02*
X301181D01*
X287205Y117126D02*
Y120079D01*
X287303Y120177D01*
X283957Y120079D02*
X287205D01*
X289665D01*
X293012Y112894D02*
X293026Y112908D01*
Y113096D01*
X291740Y116437D02*
X293406D01*
X296457Y119488D01*
Y120177D01*
X301181Y127657D02*
X302264Y126575D01*
Y125098D02*
Y126575D01*
X292421Y142323D02*
Y149114D01*
X295102Y139642D02*
X296260Y138484D01*
X292421Y142323D02*
X292496Y142248D01*
X292813D01*
X295102Y139959D01*
Y139642D02*
Y139959D01*
X357244Y151929D02*
Y166142D01*
X344291Y138976D02*
X357244Y151929D01*
X344291Y120965D02*
Y138976D01*
X338287Y114961D02*
X344291Y120965D01*
X322047Y86909D02*
Y95768D01*
X265846Y97146D02*
X267520Y95472D01*
X259449Y99311D02*
X261122Y97638D01*
X261713D01*
X155512Y100197D02*
X159744Y95965D01*
X181102Y107283D02*
Y121063D01*
X173622Y106595D02*
X185925D01*
X201969Y159646D02*
X216732Y144882D01*
X217126D01*
X189075Y159646D02*
X201969D01*
X223622Y91732D02*
X229035D01*
X222441Y90551D02*
X223622Y91732D01*
X186516Y75197D02*
Y85039D01*
X210236Y101969D02*
X210236Y101969D01*
X210630Y101575D01*
Y96260D02*
X211417D01*
X215551Y100394D01*
X176181Y80709D02*
X182087Y86614D01*
Y91535D01*
X139764Y54331D02*
Y73819D01*
X146653Y80709D01*
X176181D01*
X186024Y85532D02*
X186516Y85039D01*
X186024Y85532D02*
Y85630D01*
X174213Y75197D02*
X186516D01*
X167421Y68405D02*
X174213Y75197D01*
X167323Y40945D02*
X167421Y41043D01*
Y68405D01*
X226476Y38386D02*
X230315Y34547D01*
X226476Y38386D02*
Y38681D01*
X266634Y139567D02*
X272638D01*
X226279Y98721D02*
X229626Y102067D01*
X223819Y57677D02*
X232185Y66043D01*
X177953Y64567D02*
Y71260D01*
Y64567D02*
X184843Y57677D01*
X223819D01*
X151181Y67716D02*
Y73622D01*
X186516Y66634D02*
X191339Y61811D01*
X199606Y68504D02*
X199803Y68701D01*
Y71949D01*
X223622Y61811D02*
X228346Y66535D01*
Y70866D01*
X223425Y69095D02*
Y71949D01*
X187008Y72047D02*
X193898D01*
X186614Y72441D02*
X187008Y72047D01*
X186516Y66634D02*
Y75197D01*
X205709Y62402D02*
Y72047D01*
X205512Y62205D02*
X205709Y62402D01*
X217520Y62008D02*
Y72047D01*
Y62008D02*
X217717Y61811D01*
X191339D02*
X217717D01*
X223622D01*
X193898Y78150D02*
X199409D01*
X199606Y78347D01*
X189075Y159646D02*
Y181201D01*
X197933Y190059D01*
X38583Y24016D02*
X43701Y18898D01*
X45669D01*
X38583Y24016D02*
Y44488D01*
X144193Y126476D02*
X144193D01*
X117913Y26575D02*
X165551D01*
X167323Y28346D01*
X116142Y28346D02*
X117913Y26575D01*
X237795Y167224D02*
X241831D01*
X222835Y182382D02*
X225787Y179429D01*
X225886Y179528D01*
X226378D01*
X235138Y191142D02*
X239665D01*
D38*
X326378Y177559D02*
X329134Y174803D01*
X174016Y18110D02*
X187008D01*
X336221Y177559D02*
X336614D01*
X339764Y174409D01*
X363779Y139764D02*
X366142Y137402D01*
Y115354D02*
Y137402D01*
Y115354D02*
X372441Y109055D01*
Y86614D02*
Y109055D01*
Y86614D02*
X372835Y86221D01*
X335433Y162303D02*
X337500D01*
X339764Y164567D02*
Y174409D01*
X329134Y168405D02*
Y174803D01*
X351969Y160236D02*
X353543Y158661D01*
X342520Y160236D02*
X351969D01*
X339370Y163386D02*
X342520Y160236D01*
X338976Y163386D02*
X339370D01*
X337500Y162303D02*
X339764Y164567D01*
X173228Y18898D02*
X174016Y18110D01*
X146358Y106299D02*
X146457Y106201D01*
X153937D01*
D39*
X237598Y190748D02*
X276181D01*
X226083D02*
X237598D01*
X276181D02*
X276279Y190847D01*
X226083Y190748D02*
X226181Y190847D01*
D40*
X128347Y155905D02*
Y156004D01*
Y155905D02*
Y155905D01*
X128248D02*
X128347Y156004D01*
X120473Y157283D02*
X124409Y161221D01*
X128347Y157283D01*
X124409Y155905D02*
X128248D01*
X120473Y155905D02*
Y155905D01*
Y157283D01*
Y155905D02*
X124409D01*
X128347Y155905D02*
X129724D01*
X125787D02*
X128347D01*
X129724D02*
X136024Y162205D01*
X128347Y156004D02*
Y157283D01*
D41*
X242224Y158071D02*
Y161417D01*
X237402Y97736D02*
Y104429D01*
X250000Y149606D02*
Y158957D01*
X329626Y154429D02*
Y162598D01*
X280906Y123819D02*
X283760Y126673D01*
X286689Y133488D02*
X287106Y133071D01*
X290354Y129823D01*
Y126083D02*
Y129823D01*
X92520Y63976D02*
X124606D01*
X90925Y65571D02*
X92520Y63976D01*
X82677Y68799D02*
X90453D01*
X90925Y65571D02*
Y72441D01*
X90453Y68799D02*
X90551Y68898D01*
X294783Y97736D02*
X300591D01*
X209350Y22933D02*
X218307D01*
X241732Y35039D02*
X241929Y34843D01*
X198425Y101575D02*
Y103937D01*
X192520Y101575D02*
X198425D01*
X282087Y97146D02*
X287894D01*
X282087D02*
Y111516D01*
X344587Y96063D02*
Y97736D01*
X204528Y118504D02*
X210630D01*
X179134Y30000D02*
X179587Y30453D01*
X364272Y96260D02*
Y97146D01*
X200492Y123327D02*
X227362D01*
X205512Y78347D02*
X211614Y72244D01*
X207087Y143307D02*
X207480Y142913D01*
X192913Y151181D02*
X193504Y151772D01*
X275787Y161713D02*
X287205D01*
X287500Y162008D01*
X274557Y160482D02*
X275787Y161713D01*
X265748Y151673D02*
X274557Y160482D01*
X166339Y126969D02*
X177264Y137894D01*
X236591Y87476D02*
X246850Y97736D01*
X199606Y78347D02*
X205506Y84246D01*
X237402Y154626D02*
Y158957D01*
X255118Y131890D02*
X255315Y131693D01*
X227362Y139370D02*
X234552D01*
X187008Y118799D02*
Y123524D01*
X254724Y161319D02*
X256299Y159744D01*
X253248Y95779D02*
Y105020D01*
X234646Y149213D02*
Y153727D01*
X294587Y90650D02*
X295374Y91437D01*
X270293Y75590D02*
X273622D01*
X179134Y37008D02*
X184173D01*
X208661Y168110D02*
Y172835D01*
X211417Y78347D02*
X211811Y78740D01*
X210236Y101969D02*
X222638Y114370D01*
X321063Y156398D02*
Y157480D01*
X315992Y151327D02*
X321063Y156398D01*
X305165Y151327D02*
X315992D01*
X323819Y189862D02*
X327165Y186516D01*
X300689Y189862D02*
X323819D01*
X296654Y185827D02*
X300689Y189862D01*
X227953Y82677D02*
X233760D01*
X217520Y78150D02*
X223425D01*
X317224Y77264D02*
X328740Y88779D01*
X301575Y77264D02*
X317224D01*
X294685Y70374D02*
X301575Y77264D01*
X328740Y88779D02*
Y96850D01*
X284449Y70374D02*
X294685D01*
X279232Y24409D02*
Y74427D01*
X274896Y78764D02*
X279232Y74427D01*
X200000Y128740D02*
X200787Y129528D01*
Y135433D01*
X203642Y137106D02*
X207087D01*
X207874Y126969D02*
X227362D01*
X207087Y137106D02*
Y137402D01*
Y127756D02*
Y137106D01*
Y127756D02*
X207874Y126969D01*
X201575Y135039D02*
X203642Y137106D01*
X207087Y143307D02*
Y150000D01*
X203445Y153642D02*
X207087Y150000D01*
X203445Y153642D02*
Y153648D01*
X201187Y155905D02*
X203445Y153648D01*
X197638Y155905D02*
X201187D01*
X193701Y151969D02*
X197638Y155905D01*
X193701Y151575D02*
Y151969D01*
X192913Y144882D02*
Y151181D01*
X207480Y142913D02*
X211417D01*
X212402Y141929D01*
Y132185D02*
Y141929D01*
X187008Y123524D02*
X187106D01*
X186614Y118405D02*
X187008Y118799D01*
X144685Y126969D02*
X166339D01*
X218307Y34547D02*
X218504D01*
X287894Y97146D02*
X287992Y97047D01*
X242913Y36220D02*
Y58661D01*
X241732Y35039D02*
X242913Y36220D01*
X241929Y34843D02*
X270079D01*
X237835Y29488D02*
X237835D01*
X235039Y32283D02*
X237835Y29488D01*
X235039Y32283D02*
Y40256D01*
X239567Y27756D02*
X273327D01*
X237835Y29488D02*
X239567Y27756D01*
X233539Y41756D02*
X235039Y40256D01*
X266240Y50591D02*
X276772Y40059D01*
Y31201D02*
Y40059D01*
X273327Y27756D02*
X276772Y31201D01*
X234552Y139370D02*
X234755Y139574D01*
X222146Y147835D02*
Y148012D01*
X208268Y161890D02*
X222146Y148012D01*
X232776Y95472D02*
X235138D01*
X232677D02*
X232776D01*
X209437Y88878D02*
X210646Y90087D01*
X206612Y88878D02*
X209437D01*
X205506Y87772D02*
X206612Y88878D01*
X275984Y142717D02*
X280807Y147539D01*
X273031Y111024D02*
X273819Y110236D01*
X235138Y95472D02*
X237402Y97736D01*
X262598Y143012D02*
X262894Y142717D01*
X272638D01*
X262598Y149803D02*
Y154331D01*
Y149606D02*
Y149803D01*
X262500Y149902D02*
X262598Y149803D01*
X259842Y140256D02*
X262598Y143012D01*
X246555Y149114D02*
X246850Y148819D01*
Y140256D02*
Y148819D01*
X267520Y167815D02*
Y175689D01*
X266339Y176870D02*
X267520Y175689D01*
X259646Y176870D02*
X266339D01*
X256004Y180512D02*
X259646Y176870D01*
X267717Y159449D02*
Y160925D01*
X262598Y154331D02*
X267717Y159449D01*
X242224Y158071D02*
X246850Y153445D01*
Y149606D02*
Y153445D01*
X217421Y144193D02*
X218898D01*
X221063Y142028D01*
Y138287D02*
Y142028D01*
Y138287D02*
X222933Y136417D01*
X227362D01*
X214469Y130118D02*
X227362D01*
X274213Y84055D02*
X275000D01*
X281988Y91043D01*
X294587Y83858D02*
Y90650D01*
X289567Y78839D02*
X294587Y83858D01*
X237894Y65847D02*
Y71063D01*
X219685Y47638D02*
X237894Y65847D01*
X276083Y117520D02*
X282087Y111516D01*
X272638Y117520D02*
X276083D01*
X300591Y97736D02*
X300689Y97638D01*
X291732Y100787D02*
X294783Y97736D01*
X279331Y118012D02*
Y118898D01*
X277559Y120669D02*
X279331Y118898D01*
X272638Y120669D02*
X277559D01*
X272638Y123819D02*
X280906D01*
X247933Y161024D02*
X250000Y158957D01*
X259449Y158760D02*
X261811Y161122D01*
X259449Y149606D02*
Y158760D01*
X256299Y149606D02*
Y159744D01*
X286910Y141142D02*
X287500Y141732D01*
X286910Y137205D02*
Y141142D01*
X286122Y136417D02*
X286910Y137205D01*
X272638Y136417D02*
X286122D01*
X279232Y24409D02*
X282480Y21161D01*
X213740Y160014D02*
Y163031D01*
Y160014D02*
X216392Y157362D01*
X238976Y142913D02*
X240551Y144488D01*
Y149606D01*
X222638Y114370D02*
X227362D01*
X220930Y117520D02*
X227362D01*
X211024Y118504D02*
X213189Y120669D01*
X227362D01*
X210630Y118504D02*
X210630Y118504D01*
X199213D02*
Y122047D01*
X198327Y118405D02*
X198425Y118504D01*
X192717Y118405D02*
X198327D01*
X184173Y37008D02*
X188091Y33091D01*
X224705Y34055D02*
X230315Y28445D01*
X211910Y28150D02*
X218307Y34547D01*
X224410Y22835D02*
Y28445D01*
X218504Y22736D02*
Y28150D01*
X218307Y22933D02*
X218504Y22736D01*
X173228Y25197D02*
Y30807D01*
X179134Y25098D02*
Y29921D01*
X179587Y28091D02*
X188091D01*
X237402Y104429D02*
X237598Y104626D01*
X259646Y111319D02*
X259842Y111516D01*
X246850Y140256D02*
X259842D01*
X242913Y58661D02*
Y78642D01*
X273819Y95472D02*
Y110236D01*
X228051Y117421D02*
X228150Y117520D01*
X235630D01*
X248327Y120669D02*
X254232Y114764D01*
X227362Y123819D02*
X249902D01*
X256687Y117033D01*
X257493D01*
X297456Y102761D02*
X298039Y102177D01*
X340146D01*
X307791Y111817D02*
X349601D01*
X290846Y133360D02*
X293799Y130408D01*
X272638Y126969D02*
X275492D01*
X287106Y133071D02*
X287205Y133169D01*
X287205D01*
X275492Y126969D02*
X279405Y130882D01*
Y131687D01*
X281207Y133488D01*
X286689D01*
X283957Y126378D02*
Y128937D01*
X282480Y130413D02*
X283957Y128937D01*
X316634Y141437D02*
X329626Y154429D01*
Y162598D02*
X335433Y168405D01*
X305020Y151181D02*
X305165Y151327D01*
X349410Y117717D02*
Y138779D01*
X233760Y82579D02*
Y82677D01*
X233563Y82382D02*
X233760Y82579D01*
Y82677D02*
X236805D01*
X250590Y71161D02*
X255732Y76303D01*
X262900D01*
X245982Y111221D02*
X272638D01*
X237598Y111730D02*
X239573Y113705D01*
X243498D01*
X237598Y104626D02*
Y111730D01*
X243498Y113705D02*
X245982Y111221D01*
X240551Y104331D02*
Y110335D01*
X240846Y110630D01*
X301511Y116339D02*
X303543D01*
Y113484D02*
Y116339D01*
X293799Y126216D02*
X295605Y124409D01*
X293799Y126216D02*
Y130408D01*
X279331Y118012D02*
X282972Y114370D01*
Y113971D02*
Y114370D01*
Y113971D02*
X284449Y112494D01*
Y102362D02*
Y112494D01*
X290274Y100787D02*
X291732D01*
X284449Y102362D02*
X286042Y100769D01*
X290255D01*
X290274Y100787D01*
X300098Y117751D02*
X301511Y116339D01*
X300098Y117751D02*
Y121653D01*
X295605Y124409D02*
X297342D01*
X300098Y121653D01*
X290846Y133360D02*
X291831Y134345D01*
X291648Y134527D02*
X291831Y134345D01*
X291648Y134527D02*
Y138786D01*
X273992Y78764D02*
X274896D01*
X256299Y96457D02*
Y104331D01*
X236805Y82677D02*
X250000Y95872D01*
Y104331D01*
X232185Y74716D02*
X253248Y95779D01*
X246850Y97736D02*
Y104331D01*
X255217Y90945D02*
Y91339D01*
X242913Y78642D02*
X255217Y90945D01*
X256299Y96457D02*
X273992Y78764D01*
X266240Y50591D02*
X267520Y51870D01*
Y77264D01*
X262900Y76303D02*
X264445Y77848D01*
Y78537D01*
X266246Y80339D01*
X268793D01*
X270595Y78537D01*
Y75990D02*
Y78537D01*
X270293Y75689D02*
X270595Y75990D01*
X270293Y75590D02*
Y75689D01*
X287697Y80709D02*
X289567Y78839D01*
X281102Y80709D02*
X287697D01*
X212402Y132185D02*
X214469Y130118D01*
X227362Y123327D02*
Y123819D01*
X199213Y122047D02*
X200492Y123327D01*
X255315Y131693D02*
X256102Y132480D01*
X234755Y132666D02*
Y139574D01*
Y132666D02*
X235335Y132087D01*
X235236Y131890D02*
X255118D01*
X274557Y160482D02*
X274705Y160335D01*
X218268Y171890D02*
X220138D01*
X237402Y149606D02*
Y154626D01*
X216392Y157362D02*
X223150D01*
X237598Y142913D02*
X238976D01*
X223150Y157362D02*
X231594Y148917D01*
Y146635D02*
Y148917D01*
Y146635D02*
X233151Y145079D01*
X235353D01*
X235393Y145119D01*
X235393D01*
X237402Y158957D02*
X237500Y159055D01*
X216392Y177362D02*
X221752D01*
X213740Y180014D02*
X216392Y177362D01*
X213740Y180014D02*
Y185079D01*
X212402Y186417D02*
X213740Y185079D01*
X208661Y168110D02*
X213740Y163031D01*
X208268Y181890D02*
X213740Y176417D01*
X204134Y186417D02*
X212402D01*
X197539Y179823D02*
X204134Y186417D01*
X213740Y170014D02*
Y176417D01*
X220138Y171890D02*
X237402Y154626D01*
X213740Y170014D02*
X216392Y167362D01*
X221011D01*
X234646Y153727D01*
X197539Y164665D02*
Y179823D01*
X209842Y101575D02*
X210236Y101969D01*
X210646Y90087D02*
X213193D01*
X227362Y111221D02*
X227362Y111221D01*
X216535Y92519D02*
Y95472D01*
X227362Y106299D01*
X215804Y87476D02*
X236591D01*
X213193Y90087D02*
X215804Y87476D01*
X198425Y95669D02*
X203740Y100984D01*
Y102362D01*
X204724Y96358D02*
Y96457D01*
X209646Y101378D01*
X204724Y92520D02*
Y96358D01*
X203740Y91535D02*
X204724Y92520D01*
X218504Y41732D02*
X218528Y41756D01*
X233539D01*
X349410Y138779D02*
X364173Y153543D01*
X349601Y111817D02*
X364272Y97146D01*
X340146Y102177D02*
X344587Y97736D01*
X274557Y160482D02*
X274557D01*
X265748Y149606D02*
Y151673D01*
X235393Y145119D02*
X237598Y142913D01*
X272638Y142717D02*
X275984D01*
X262598Y143012D02*
Y149606D01*
X250000Y104331D02*
Y104429D01*
X227362Y120669D02*
X248327D01*
X227362Y106299D02*
Y111221D01*
X209414Y106004D02*
X220930Y117520D01*
X200492Y106004D02*
X209414D01*
X198425Y103937D02*
X200492Y106004D01*
X232185Y66043D02*
Y74716D01*
X211614Y71752D02*
Y72244D01*
X223425Y78150D02*
X223622Y77953D01*
X223425Y78248D02*
X223524D01*
X227953Y82677D01*
X205506Y84246D02*
Y87772D01*
X211811Y78740D02*
Y85433D01*
X5906Y147638D02*
X15748Y157480D01*
X5906Y125984D02*
Y147638D01*
Y125984D02*
X7874Y124016D01*
X38386D01*
X43307Y119095D01*
Y100394D02*
Y119095D01*
Y100394D02*
X48228Y95472D01*
X113189D01*
X144193Y126476D01*
X144685Y126969D01*
X124606Y63976D02*
X127165Y61417D01*
X227854Y171260D02*
X231496D01*
X221752Y177362D02*
X227854Y171260D01*
D42*
X196161Y115256D02*
X198917Y112500D01*
X198327Y95768D02*
X198721Y96161D01*
X186417Y112894D02*
X188779Y115256D01*
X196161D01*
X198917Y112500D02*
X201772Y115354D01*
X209055D01*
X210433Y113976D01*
Y112303D02*
Y113976D01*
D43*
X140748Y106299D02*
X146358D01*
X101378Y89567D02*
X124016D01*
X140748Y106299D01*
X146358D02*
X146653D01*
D44*
X166535Y178740D02*
X178347Y190551D01*
X135433Y172244D02*
X136221Y173031D01*
X131201Y189862D02*
X138386D01*
X124409Y183071D02*
X131201Y189862D01*
X152559Y189961D02*
X163779Y178740D01*
X124409Y172244D02*
X135433D01*
X124409Y172638D02*
Y183071D01*
X138189Y189961D02*
X152559D01*
X163779Y178740D02*
X166535D01*
D45*
X237598Y190748D02*
X238287Y190059D01*
X237402Y190945D02*
X237598Y190748D01*
X238287Y182480D02*
Y190059D01*
X309055Y19685D02*
X347638D01*
X15748Y157480D02*
X25748D01*
X46457Y19685D02*
X71850D01*
X46457Y19685D02*
X46457Y19685D01*
X263484Y182480D02*
Y190256D01*
D46*
X229921Y16929D02*
Y28740D01*
X304331Y14961D02*
Y14961D01*
X220866Y16535D02*
X224410D01*
X298819Y9449D02*
X304331Y14961D01*
X237402Y9449D02*
X298819D01*
X201969Y35630D02*
Y40945D01*
X195276Y20472D02*
X195472Y20669D01*
X195669D01*
X195276Y20276D02*
Y20472D01*
X193012Y18012D02*
X195276Y20276D01*
X195669Y20669D02*
Y41339D01*
X221260Y12992D02*
Y16142D01*
X220866Y16535D02*
X221260Y16142D01*
X229921Y16929D02*
X237402Y9449D01*
X188681Y18012D02*
X193012D01*
X204705Y33091D02*
X209547D01*
X201969Y35630D02*
X204528Y33071D01*
X387008Y99213D02*
Y103248D01*
D47*
X209252Y18012D02*
X212500D01*
X261713Y167421D02*
Y171752D01*
Y167421D02*
X262106Y167028D01*
X255217Y167323D02*
Y170079D01*
X173228Y25098D02*
X176279Y22047D01*
X221260Y19685D02*
X224410Y22835D01*
X245768Y174409D02*
X245768Y174410D01*
Y180512D01*
X250886Y174409D02*
X255217Y170079D01*
X250886Y174409D02*
Y180512D01*
X259055Y174409D02*
X261713Y171752D01*
X255118Y174409D02*
X259055D01*
X253445Y176083D02*
X255118Y174409D01*
X253445Y176083D02*
Y180512D01*
X212500Y18012D02*
X214173Y19685D01*
X221260D01*
X176279Y22047D02*
X182185D01*
X173228Y25098D02*
Y25197D01*
X182185Y22047D02*
X182972Y22835D01*
X187795D01*
D48*
X97441Y7873D02*
Y3937D01*
X99409D01*
X100065Y4593D01*
Y7217D01*
X99409Y7873D01*
X97441D01*
X103345Y3937D02*
X102033D01*
X101377Y4593D01*
Y5905D01*
X102033Y6561D01*
X103345D01*
X104000Y5905D01*
Y5249D01*
X101377D01*
X105312Y3937D02*
X107280D01*
X107936Y4593D01*
X107280Y5249D01*
X105968D01*
X105312Y5905D01*
X105968Y6561D01*
X107936D01*
X109248Y3937D02*
X110560D01*
X109904D01*
Y6561D01*
X109248D01*
X113840Y2625D02*
X114496D01*
X115152Y3281D01*
Y6561D01*
X113184D01*
X112528Y5905D01*
Y4593D01*
X113184Y3937D01*
X115152D01*
X116464D02*
Y6561D01*
X118431D01*
X119088Y5905D01*
Y3937D01*
X122367D02*
X121055D01*
X120399Y4593D01*
Y5905D01*
X121055Y6561D01*
X122367D01*
X123023Y5905D01*
Y5249D01*
X120399D01*
X126959Y7873D02*
Y3937D01*
X124991D01*
X124335Y4593D01*
Y5905D01*
X124991Y6561D01*
X126959D01*
X132207Y7873D02*
Y3937D01*
X134175D01*
X134830Y4593D01*
Y5249D01*
Y5905D01*
X134175Y6561D01*
X132207D01*
X136142D02*
Y4593D01*
X136798Y3937D01*
X138766D01*
Y3281D01*
X138110Y2625D01*
X137454D01*
X138766Y3937D02*
Y6561D01*
X144014Y3937D02*
Y7873D01*
X145982D01*
X146638Y7217D01*
Y5905D01*
X145982Y5249D01*
X144014D01*
X145326D02*
X146638Y3937D01*
X147950D02*
X149261D01*
X148606D01*
Y6561D01*
X147950D01*
X151229Y3937D02*
Y7873D01*
Y5249D02*
X153197Y6561D01*
X151229Y5249D02*
X153197Y3937D01*
D49*
X267717Y165305D02*
D03*
Y163435D02*
D03*
D50*
X336614Y177165D02*
D03*
X326614D02*
D03*
X106004Y178209D02*
D03*
X310728Y66004D02*
D03*
Y178209D02*
D03*
X374016Y177165D02*
D03*
Y19685D02*
D03*
X19685D02*
D03*
Y177165D02*
D03*
X104134Y117146D02*
D03*
Y137146D02*
D03*
Y107146D02*
D03*
Y127146D02*
D03*
X312500Y136752D02*
D03*
Y156752D02*
D03*
Y126752D02*
D03*
Y146752D02*
D03*
Y106752D02*
D03*
Y86752D02*
D03*
Y116752D02*
D03*
Y96752D02*
D03*
X25748Y157480D02*
D03*
X15748D02*
D03*
X357244Y166142D02*
D03*
X347244D02*
D03*
D51*
X136024Y162205D02*
D03*
X218268Y181890D02*
D03*
X208268Y171890D02*
D03*
X218268D02*
D03*
X208268Y161890D02*
D03*
X218268D02*
D03*
D52*
X136024Y172205D02*
D03*
X208268Y181890D02*
D03*
D53*
X165354Y163386D02*
D03*
Y187008D02*
D03*
X334646Y33465D02*
D03*
Y9843D02*
D03*
X59055Y33465D02*
D03*
Y9843D02*
D03*
D54*
Y84252D02*
D03*
Y120472D02*
D03*
X59055Y102363D02*
D03*
D55*
X344488Y153543D02*
D03*
X364173D02*
D03*
Y96457D02*
D03*
X344488D02*
D03*
X354331D02*
D03*
X62598Y169291D02*
D03*
D56*
X331693Y125984D02*
D03*
X376969D02*
D03*
D57*
X239665Y191142D02*
D03*
X262106D02*
D03*
D58*
X384842Y30512D02*
D03*
X387795D02*
D03*
X378937Y33465D02*
D03*
X387795Y36417D02*
D03*
Y39370D02*
D03*
Y42323D02*
D03*
X85630Y80709D02*
D03*
X93504D02*
D03*
X89567D02*
D03*
X311024Y11811D02*
D03*
X314961D02*
D03*
X124409Y155905D02*
D03*
X120473D02*
D03*
X128347D02*
D03*
X68898Y52756D02*
D03*
X72047D02*
D03*
X75197D02*
D03*
X65748D02*
D03*
X62598D02*
D03*
X65945Y58071D02*
D03*
X62992D02*
D03*
X23327Y57480D02*
D03*
Y54528D02*
D03*
Y51575D02*
D03*
X82677Y11811D02*
D03*
X78740D02*
D03*
Y7874D02*
D03*
X82677D02*
D03*
Y3937D02*
D03*
X78740D02*
D03*
X64961Y11811D02*
D03*
Y7874D02*
D03*
Y3937D02*
D03*
X59055D02*
D03*
X53150D02*
D03*
Y7874D02*
D03*
Y11811D02*
D03*
X35433D02*
D03*
X39370D02*
D03*
Y7874D02*
D03*
X35433D02*
D03*
Y3937D02*
D03*
X39370D02*
D03*
X358268Y11811D02*
D03*
Y7874D02*
D03*
Y3937D02*
D03*
X354331D02*
D03*
Y7874D02*
D03*
Y11811D02*
D03*
X340551D02*
D03*
Y7874D02*
D03*
Y3937D02*
D03*
X334646D02*
D03*
X328740D02*
D03*
Y7874D02*
D03*
Y11811D02*
D03*
X311024Y3937D02*
D03*
Y7874D02*
D03*
X314961D02*
D03*
Y3937D02*
D03*
X89173Y111319D02*
D03*
X83268D02*
D03*
X86221D02*
D03*
X92126D02*
D03*
X95079D02*
D03*
X83268Y114272D02*
D03*
X86221D02*
D03*
X89173D02*
D03*
X92126D02*
D03*
X95079D02*
D03*
X12795Y142717D02*
D03*
Y139764D02*
D03*
Y136811D02*
D03*
Y133858D02*
D03*
Y130905D02*
D03*
X27559D02*
D03*
Y133858D02*
D03*
Y136811D02*
D03*
Y139764D02*
D03*
Y142717D02*
D03*
X168307Y86614D02*
D03*
X152559D02*
D03*
X344488Y71850D02*
D03*
X341535D02*
D03*
X338583D02*
D03*
X335630D02*
D03*
X347441Y80709D02*
D03*
Y77756D02*
D03*
Y74803D02*
D03*
X344488Y80709D02*
D03*
Y77756D02*
D03*
Y74803D02*
D03*
X341535Y80709D02*
D03*
Y77756D02*
D03*
Y74803D02*
D03*
X338583Y77756D02*
D03*
Y74803D02*
D03*
X335630D02*
D03*
Y77756D02*
D03*
Y80709D02*
D03*
X389764Y88583D02*
D03*
X386811D02*
D03*
Y69882D02*
D03*
Y75787D02*
D03*
X389764D02*
D03*
Y69882D02*
D03*
X386811Y72835D02*
D03*
X389764D02*
D03*
X383858Y88583D02*
D03*
Y91535D02*
D03*
X386811D02*
D03*
X389764D02*
D03*
Y94488D02*
D03*
X386811D02*
D03*
X383858D02*
D03*
X381890Y33465D02*
D03*
X387795D02*
D03*
X104331Y41339D02*
D03*
X108268D02*
D03*
X111221D02*
D03*
Y38386D02*
D03*
Y35433D02*
D03*
Y32480D02*
D03*
X110236Y29528D02*
D03*
X107283D02*
D03*
X104331D02*
D03*
X101378D02*
D03*
Y41339D02*
D03*
X98425Y29528D02*
D03*
Y41339D02*
D03*
X20374Y51575D02*
D03*
Y54528D02*
D03*
Y57480D02*
D03*
X17421D02*
D03*
Y54528D02*
D03*
Y51575D02*
D03*
X384842Y33465D02*
D03*
X332677Y74803D02*
D03*
Y71850D02*
D03*
X338583Y80709D02*
D03*
X332677D02*
D03*
Y77756D02*
D03*
X97441Y89567D02*
D03*
Y85630D02*
D03*
Y81693D02*
D03*
X81693D02*
D03*
X77756D02*
D03*
Y85630D02*
D03*
Y89567D02*
D03*
X81693Y85630D02*
D03*
X73819Y81693D02*
D03*
Y85630D02*
D03*
Y89567D02*
D03*
Y77756D02*
D03*
X77756D02*
D03*
X101378Y89567D02*
D03*
Y85630D02*
D03*
Y81693D02*
D03*
X164370Y86614D02*
D03*
X156496D02*
D03*
X160433D02*
D03*
X223622Y68504D02*
D03*
X273622Y188976D02*
D03*
Y192913D02*
D03*
X228346D02*
D03*
Y187992D02*
D03*
X35433Y179134D02*
D03*
Y175197D02*
D03*
Y171260D02*
D03*
X39370Y179134D02*
D03*
Y175197D02*
D03*
Y171260D02*
D03*
X43307Y179134D02*
D03*
Y175197D02*
D03*
Y171260D02*
D03*
X35433Y153543D02*
D03*
X39370D02*
D03*
X43307D02*
D03*
D59*
X286516Y75098D02*
D03*
X196850Y139764D02*
D03*
X187106Y123524D02*
D03*
X177067Y137894D02*
D03*
X261417Y20472D02*
D03*
X248819D02*
D03*
X144488Y20079D02*
D03*
X131496D02*
D03*
X281004Y180413D02*
D03*
X292421Y149114D02*
D03*
X240476Y155413D02*
D03*
X270965Y150984D02*
D03*
X256102Y132480D02*
D03*
X173622Y94095D02*
D03*
X145965Y94980D02*
D03*
X234755Y139574D02*
D03*
X222146Y147835D02*
D03*
X287008Y173130D02*
D03*
X287697Y152264D02*
D03*
X229626Y102067D02*
D03*
X269980Y101772D02*
D03*
X220669Y133366D02*
D03*
X192618Y107087D02*
D03*
X192421Y90650D02*
D03*
X274213Y84055D02*
D03*
X301083Y86417D02*
D03*
X287894Y86221D02*
D03*
X250590Y71161D02*
D03*
X237894Y71063D02*
D03*
X253162Y155913D02*
D03*
X245768Y174409D02*
D03*
X363779Y139764D02*
D03*
X207480Y41339D02*
D03*
X195276Y20472D02*
D03*
X221260Y12992D02*
D03*
X303150Y25984D02*
D03*
X387008Y99213D02*
D03*
X353543Y158661D02*
D03*
X163779Y71260D02*
D03*
X177953D02*
D03*
X273917Y90748D02*
D03*
X249410Y79035D02*
D03*
X263878Y83563D02*
D03*
X235630Y117520D02*
D03*
X254232Y114764D02*
D03*
X257493Y117033D02*
D03*
X297456Y102761D02*
D03*
X307791Y111817D02*
D03*
X265453Y138386D02*
D03*
X287205Y133169D02*
D03*
X282480Y130413D02*
D03*
X305020Y151181D02*
D03*
X316634Y141437D02*
D03*
X226083Y190748D02*
D03*
X277067Y190847D02*
D03*
X349410Y117717D02*
D03*
X233563Y82382D02*
D03*
X328740Y96850D02*
D03*
X273622Y75689D02*
D03*
X240846Y110630D02*
D03*
X266535Y119291D02*
D03*
X287205Y117126D02*
D03*
X288779Y104528D02*
D03*
X293026Y113096D02*
D03*
X296457Y120177D02*
D03*
X302264Y125098D02*
D03*
X291648Y138786D02*
D03*
X338287Y114961D02*
D03*
X322047Y95768D02*
D03*
X240650Y91929D02*
D03*
X255217Y91339D02*
D03*
X261713Y97638D02*
D03*
X267520Y77264D02*
D03*
X281102Y80709D02*
D03*
X284449Y70374D02*
D03*
X235236Y131890D02*
D03*
X274705Y160335D02*
D03*
X237500Y158760D02*
D03*
X197539Y164665D02*
D03*
X216535Y92519D02*
D03*
X222441Y90551D02*
D03*
X215551Y100394D02*
D03*
X203740Y91535D02*
D03*
X182087D02*
D03*
X186024Y85630D02*
D03*
X167323Y40945D02*
D03*
X226476Y38681D02*
D03*
X151181Y73622D02*
D03*
X228346Y70866D02*
D03*
X199606Y68504D02*
D03*
X211811Y85433D02*
D03*
X237795Y167224D02*
D03*
X231496Y171260D02*
D03*
X226378Y179528D02*
D03*
D60*
X62598Y187008D02*
D03*
D61*
X258760Y182677D02*
D03*
X243012D02*
D03*
M02*
